{
    "database": {
        "host": "localhost",
        "port": 3306,
        "user": "admin",
        "password": "iloveSL123.",
        "database": "farefinders"
    },
    "secret": "THIS IS USED TO SIGN AND VERIFY JWT TOKENS, REPLACE IT WITH YOUR OWN SECRET, IT CAN BE ANY STRING"
}